﻿"","SubscriberID","EmailAddress","BounceType","SubscriptionStatus","SubscriptionDate","SubscriptionIP","UnsubscriptionDate","UnsubscriptionIP","OptInDate","Name Test"
"","1","adelshawkat@gmail.com","Not Bounced","Subscribed","2016-08-12","","0000-00-00","0.0.0.0","0000-00-00","Adel Shawkat"
"","2","Francois.Seco@gsk-group.com","Not Bounced","Subscribed","2016-08-12","85.105.184.199 - Manual Import","0000-00-00","0.0.0.0","0000-00-00",""
"","3","Goran.Kokeza@brodosplit.hr","Not Bounced","Subscribed","2016-08-12","85.105.184.199 - Manual Import","0000-00-00","0.0.0.0","0000-00-00",""
"","4","Tino.Nikolic@brodosplit.hr","Not Bounced","Subscribed","2016-08-12","85.105.184.199 - Manual Import","0000-00-00","0.0.0.0","0000-00-00",""
"","5","carlos.saraiva@mcg.pt","Not Bounced","Subscribed","2016-08-12","85.105.184.199 - Manual Import","0000-00-00","0.0.0.0","0000-00-00",""
"","6","antonova@stelco-metals.com","Not Bounced","Subscribed","2016-08-12","85.105.184.199 - Manual Import","0000-00-00","0.0.0.0","0000-00-00",""
"","7","schax@staudestahl.de","Not Bounced","Subscribed","2016-08-12","85.105.184.199 - Manual Import","0000-00-00","0.0.0.0","0000-00-00",""
"","8","steel@scope.co.il","Not Bounced","Subscribed","2016-08-12","85.105.184.199 - Manual Import","0000-00-00","0.0.0.0","0000-00-00",""
"","9","standeng@tedata.net.eg","Not Bounced","Subscribed","2016-08-12","85.105.184.199 - Manual Import","0000-00-00","0.0.0.0","0000-00-00",""
"","10","h@austensteels.com","Not Bounced","Subscribed","2016-08-12","85.105.184.199 - Manual Import","0000-00-00","0.0.0.0","0000-00-00",""
"","11","sg@jovesteels.com","Not Bounced","Subscribed","2016-08-12","85.105.184.199 - Manual Import","0000-00-00","0.0.0.0","0000-00-00",""
"","12","arcons@arconsegypt.com","Not Bounced","Subscribed","2016-08-12","85.105.184.199 - Manual Import","0000-00-00","0.0.0.0","0000-00-00",""
"","13","business@nsfegypt.com","Not Bounced","Subscribed","2016-08-12","85.105.184.199 - Manual Import","0000-00-00","0.0.0.0","0000-00-00",""
"","14","info@esf.com.eg","Not Bounced","Subscribed","2016-08-12","85.105.184.199 - Manual Import","0000-00-00","0.0.0.0","0000-00-00",""
"","15","marketing.amman@al-fayhagroup.com","Not Bounced","Subscribed","2016-08-12","85.105.184.199 - Manual Import","0000-00-00","0.0.0.0","0000-00-00",""
"","16","marketing.manager@al-fayhagroup.com","Not Bounced","Subscribed","2016-08-12","85.105.184.199 - Manual Import","0000-00-00","0.0.0.0","0000-00-00",""
"","17","info@farukholding.com","Not Bounced","Subscribed","2016-08-12","85.105.184.199 - Manual Import","0000-00-00","0.0.0.0","0000-00-00",""
"","18","dorceiraq@dorce.com.tr","Not Bounced","Subscribed","2016-08-12","85.105.184.199 - Manual Import","0000-00-00","0.0.0.0","0000-00-00",""